[gd_resource type="Resource" load_steps=2 format=2]

[ext_resource path="res://Support Scenes/Spell.gd" type="Script" id=1]

[resource]

script = ExtResource( 1 )
spell_name = "Attack"
die_count = 1
die_faces = 4
special_used = 0
spell_type = 0
animation_name = "EnemyMelee"

