[gd_resource type="Resource" load_steps=2 format=2]

[ext_resource path="res://Support Scenes/Spell.gd" type="Script" id=1]

[resource]

script = ExtResource( 1 )
spell_name = "Cure Wounds"
die_count = 1
die_faces = 8
special_used = 3
spell_type = 2
animation_name = "Cure Wounds"

