[gd_scene load_steps=2 format=2]

[ext_resource path="res://Maps/tile-set.tres" type="TileSet" id=1]

[node name="Node2D" type="Node2D"]

[node name="TileMap" type="TileMap" parent="."]
tile_set = ExtResource( 1 )
cell_size = Vector2( 128, 128 )
format = 1
tile_data = PoolIntArray( 0, 141, 0, 1, 140, 0, 2, 141, 0, 3, 141, 0, 4, 141, 0, 5, 141, 0, 6, 141, 0, 7, 140, 0, 8, 141, 0, 65536, 141, 0, 65537, 140, 0, 65538, 140, 0, 65539, 140, 0, 65540, 140, 0, 65541, 140, 0, 65542, 140, 0, 65543, 140, 0, 65544, 141, 0, 131072, 141, 0, 131073, 141, 0, 131074, 141, 0, 131075, 141, 0, 131076, 141, 0, 131077, 141, 0, 131078, 141, 0, 131079, 141, 0, 131080, 141, 0, 196608, 141, 0, 196609, 141, 0, 196610, 141, 0, 196611, 141, 0, 196612, 141, 0, 196613, 141, 0, 196614, 141, 0, 196615, 141, 0, 196616, 141, 0, 262144, 141, 0, 262145, 141, 0, 262146, 141, 0, 262147, 141, 0, 262148, 141, 0, 262149, 141, 0, 262150, 141, 0, 262151, 141, 0, 262152, 141, 0 )

