[gd_resource type="TileSet" load_steps=6 format=2]

[ext_resource path="res://Overworld/Assets/Inside/F-WoodPanel.png" type="Texture" id=1]
[ext_resource path="res://Overworld/Assets/Grasslands/F-DryDirt.png" type="Texture" id=2]
[ext_resource path="res://Overworld/F-Grass.png" type="Texture" id=3]

[sub_resource type="RectangleShape2D" id=1]

custom_solver_bias = 0.0
extents = Vector2( 10, 10 )

[sub_resource type="RectangleShape2D" id=2]

custom_solver_bias = 0.0
extents = Vector2( 15.9912, 16.113 )

[resource]

0/name = "Floor"
0/texture = ExtResource( 1 )
0/tex_offset = Vector2( 0, 0 )
0/modulate = Color( 1, 1, 1, 1 )
0/region = Rect2( 0, 0, 32, 32 )
0/is_autotile = false
0/occluder_offset = Vector2( 16, 16 )
0/navigation_offset = Vector2( 16, 16 )
0/shapes = [  ]
1/name = "Wall"
1/texture = ExtResource( 2 )
1/tex_offset = Vector2( 0, 0 )
1/modulate = Color( 1, 1, 1, 1 )
1/region = Rect2( 0, 0, 32, 32 )
1/is_autotile = false
1/occluder_offset = Vector2( 16, 16 )
1/navigation_offset = Vector2( 16, 16 )
1/shapes = [ {
"autotile_coord": Vector2( 0, 0 ),
"one_way": false,
"shape": SubResource( 1 ),
"shape_transform": Transform2D( 1.60522, 0, 0, 1.61767, 16.7023, 15.3143 )
} ]
2/name = "Battle Zone"
2/texture = ExtResource( 3 )
2/tex_offset = Vector2( 0, 0 )
2/modulate = Color( 1, 1, 1, 1 )
2/region = Rect2( 0, 0, 32, 32 )
2/is_autotile = false
2/occluder_offset = Vector2( 16, 16 )
2/navigation_offset = Vector2( 16, 16 )
2/shapes = [ {
"autotile_coord": Vector2( 0, 0 ),
"one_way": false,
"shape": SubResource( 2 ),
"shape_transform": Transform2D( 1, 0, 0, 1, 16, 16 )
} ]

