[gd_scene load_steps=2 format=2]

[ext_resource path="res://MainMenu/Buttons/MenuButton.tscn" type="PackedScene" id=1]

[node name="StartButton" index="0" instance=ExtResource( 1 )]
scene_to_load = "res://Game/Game.tscn"

[node name="Label" parent="." index="0"]
text = "Start"

